…
hydroS %>% 
  filter(`Sig-th`!= -999) %>% 
  ggplot()+
  geom_point(aes(x=`Sig-th`, y=Sig_th_gsw))
```

<img src="TEOS-HydroStationS_files/figure-html/unnamed-chunk-4-7.png" width="672" />

```r
hydroS %>% 
  filter(Sig_th_gsw<0)
```

```
## # A tibble: 544 × 19
##         Id yyyymmd  decy  time  latN  lonW Depth  Pres  Temp CTD_S  Sal1 Sig-t…¹
##      <dbl>   <dbl> <dbl> <dbl> <dbl> <dbl> <dbl> <dbl> <dbl> <dbl> <dbl>   <dbl>
##  1  6.00e9  1.96e7 1955.  1703  32.2  64.4   495  -999  -999  -999  36.3    -999
##  2  6.00e9  1.96e7 1955.  1601  32.1  64.3   144  -999  -999  -999  36.6    -999
##  3  6.00e9  1.96e7 1956.  1704  32.1  64.3   873  -999  -999  -999  35.4    -999
##  4  6.00e9  1.96e7 1956.  1704  32.1  64.3    50  -999  -999  -999  36.2    -999
##  5  6.00e9  1.96e7 1956.  1704  32.1  64.3   244  -999  -999  -999  36.5    -999
##  6  6.00e9  1.96e7 1956.  1704  32.1  64.3   685  -999  -999  -999  36.0    -999
##  7  6.00e9  1.96e7 1956.  1705  32.2  64.3    50  -999  -999  -999  36.4    -999
##  8  6.00e9  1.96e7 1957.  1703  32.1  64.3  2024  -999  -999  -999  35.0    -999
##  9  6.00e9  1.96e7 1958.  1504  32.0  64.4   961  -999  -999  -999  35.2    -999
## 10  6.01e9  1.96e7 1958.  1705  32.2  64.2   553  -999  -999  -999  36.1    -999
## # … with 534 more rows, 7 more variables: `O2(1)` <dbl>, OxFix <dbl>,
## #   Anom1 <dbl>, Pres_gsw <dbl>, S_abs_gsw <dbl>, T_cons_gsw <dbl>,
## #   Sig_th_gsw <dbl>, and abbreviated variable name ¹​`Sig-th`
```
…
